Tidy Intro Talk
…
# process the sample ID from the filename
sce <- sce |>
  extract(file, "sample", "../data/.*/([a-zA-Z0-9_-]+)/outs.+")
sce |>
  select(sample)

tidySingleCellExperiment says: Key columns are missing. A data frame is returned for independent data analysis.

# A tibble: 3,580 × 1
   sample  
   <chr>   
 1 SI-GA-H1
 2 SI-GA-H1
 3 SI-GA-H1
 4 SI-GA-H1
 5 SI-GA-H1
 6 SI-GA-H1
 7 SI-GA-H1
 8 SI-GA-H1
 9 SI-GA-H1
10 SI-GA-H1
# ℹ 3,570 more rows
…
# looping over 1000 genes, averaging 100 samples
se_test |>
  group_by(.feature) |>
  summarize(ave_count = mean(counts))

tidySummarizedExperiment says: A data frame is returned for independent data analysis.

# A tibble: 1,000 × 2
   .feature ave_count
   <chr>        <dbl>
 1 1             99.3
 2 10           102. 
 3 100          101. 
 4 1000          99.8
 5 101          101. 
 6 102          100. 
 7 103          101. 
 8 104          102. 
 9 105           99.4
10 106          100. 
# ℹ 990 more rows
…
